module mcli

go 1.21.4

require (
	github.com/gomarkdown/markdown v0.0.0-20230313173142-2ced44d5b584
	github.com/spf13/cobra v1.5.0
	golang.org/x/crypto v0.13.0
	golang.org/x/exp v0.0.0-20221126150942-6ab00d035af9
	golang.org/x/term v0.12.0
	gopkg.in/mgo.v2 v2.0.0-20190816093944-a6b53ec6cb22
	gopkg.in/yaml.v3 v3.0.1
)

require (
	github.com/Azure/go-ansiterm v0.0.0-20230124172434-306776ec8161 // indirect
	github.com/Direct-Dev-Ru/go_common_ddru v0.1.0 // indirect
	github.com/Microsoft/go-winio v0.6.1 // indirect
	github.com/Nvveen/Gotty v0.0.0-20120604004816-cd527374f1e5 // indirect
	github.com/aymerick/douceur v0.2.0 // indirect
	github.com/cenkalti/backoff/v4 v4.2.1 // indirect
	github.com/cespare/xxhash/v2 v2.2.0 // indirect
	github.com/containerd/continuity v0.4.2 // indirect
	github.com/dgryski/go-rendezvous v0.0.0-20200823014737-9f7001d12a5f // indirect
	github.com/docker/cli v24.0.6+incompatible // indirect
	github.com/docker/docker v24.0.6+incompatible // indirect
	github.com/docker/go-connections v0.4.0 // indirect
	github.com/docker/go-units v0.5.0 // indirect
	github.com/go-redis/redis/v8 v8.11.5 // indirect
	github.com/gogo/protobuf v1.3.2 // indirect
	github.com/gomodule/redigo v1.8.9 // indirect
	github.com/google/shlex v0.0.0-20191202100458-e7afc7fbc510 // indirect
	github.com/google/uuid v1.3.0 // indirect
	github.com/gorilla/css v1.0.0 // indirect
	github.com/gorilla/securecookie v1.1.1 // indirect
	github.com/imdario/mergo v0.3.16 // indirect
	github.com/mitchellh/mapstructure v1.5.0 // indirect
	github.com/moby/term v0.5.0 // indirect
	github.com/opencontainers/go-digest v1.0.0 // indirect
	github.com/opencontainers/image-spec v1.0.2 // indirect
	github.com/opencontainers/runc v1.1.9 // indirect
	github.com/ory/dockertest/v3 v3.10.0 // indirect
	github.com/pkg/errors v0.9.1 // indirect
	github.com/sirupsen/logrus v1.9.3 // indirect
	github.com/xeipuuv/gojsonpointer v0.0.0-20190905194746-02993c407bfb // indirect
	github.com/xeipuuv/gojsonreference v0.0.0-20180127040603-bd5ef7bd5415 // indirect
	github.com/xeipuuv/gojsonschema v1.2.0 // indirect
	golang.org/x/mod v0.12.0 // indirect
	golang.org/x/net v0.15.0 // indirect
	golang.org/x/tools v0.13.0 // indirect
	gopkg.in/yaml.v2 v2.4.0 // indirect
)

require (
	github.com/inconshreveable/mousetrap v1.0.1 // indirect
	github.com/mattn/go-colorable v0.1.13 // indirect
	github.com/mattn/go-isatty v0.0.16 // indirect
	github.com/microcosm-cc/bluemonday v1.0.25
	github.com/rs/zerolog v1.28.0
	github.com/spf13/pflag v1.0.5 // indirect
	golang.org/x/sys v0.12.0 // indirect
)

// replace (
//     github.com/Direct-Dev-Ru/mcli/packages/http[v1.1.1] =>"./packages/http"
// )
